^C:\Users\Sebas\source\repos\testImc\testImc\testImc.vcxproj
C:\Users\Sebas\source\repos\testImc\x64\Release\testImc.ipdb
C:\Users\Sebas\source\repos\testImc\x64\Release\testImc.iobj
^C:\Users\Sebas\source\repos\testImc\testImc\testImc.vcxproj
C:\Users\Sebas\source\repos\testImc\x64\Release\testImc.ipdb
C:\Users\Sebas\source\repos\testImc\x64\Release\testImc.iobj
^C:\Users\Sebas\source\repos\testImc\testImc\testImc.vcxproj
C:\Users\Sebas\source\repos\testImc\x64\Release\testImc.ipdb
C:\Users\Sebas\source\repos\testImc\x64\Release\testImc.iobj
^C:\Users\Sebas\source\repos\testImc\testImc\testImc.vcxproj
C:\Users\Sebas\source\repos\testImc\x64\Release\testImc.ipdb
C:\Users\Sebas\source\repos\testImc\x64\Release\testImc.iobj
^C:\Users\Sebas\source\repos\testImc\testImc\testImc.vcxproj
C:\Users\Sebas\source\repos\testImc\x64\Release\testImc.ipdb
C:\Users\Sebas\source\repos\testImc\x64\Release\testImc.iobj
^C:\Users\Sebas\source\repos\testImc\testImc\testImc.vcxproj
C:\Users\Sebas\source\repos\testImc\x64\Release\testImc.ipdb
C:\Users\Sebas\source\repos\testImc\x64\Release\testImc.iobj
^C:\Users\Sebas\source\repos\testImc\testImc\testImc.vcxproj
C:\Users\Sebas\source\repos\testImc\x64\Release\testImc.ipdb
C:\Users\Sebas\source\repos\testImc\x64\Release\testImc.iobj
^C:\Users\Sebas\source\repos\testImc\testImc\testImc.vcxproj
C:\Users\Sebas\source\repos\testImc\x64\Release\testImc.ipdb
C:\Users\Sebas\source\repos\testImc\x64\Release\testImc.iobj
^C:\Users\Sebas\source\repos\testImc\testImc\testImc.vcxproj
C:\Users\Sebas\source\repos\testImc\x64\Release\testImc.ipdb
C:\Users\Sebas\source\repos\testImc\x64\Release\testImc.iobj
^C:\Users\Sebas\source\repos\testImc\testImc\testImc.vcxproj
C:\Users\Sebas\source\repos\testImc\x64\Release\testImc.ipdb
C:\Users\Sebas\source\repos\testImc\x64\Release\testImc.iobj
^C:\Users\Sebas\source\repos\testImc\testImc\testImc.vcxproj
C:\Users\Sebas\source\repos\testImc\x64\Release\testImc.ipdb
C:\Users\Sebas\source\repos\testImc\x64\Release\testImc.iobj
